Team 1,Team 1 Score,Team 2 Score,Team 2
"Pie, Claudius ",0.5,2.0,"On a buttered roll"
"Steven Hamburger, Ph.D.",2.0,2.0,"Tiers of Joy"
"First Person Baker Mode",1.0,1.0,"Drop the Biscuit"
"Muffin Top",0.5,-0.5,"Panos Breados"