Team,Score
"Panos Breados",31.0
"Tiers of Joy",30.5
"Drop the Biscuit",29.5
"Muffin Top",29.0
"Steven Hamburger, Ph.D.",29.0
"First Person Baker Mode",27.0
"Pie, Claudius ",26.5
"On a buttered roll",17.0