Baker Name, Star Baker Score, Leaver of Tents Score, Technical Winner Score
Andy,1.0,2.0,1.0
Christiaan,0.0,0.0,0.0
Dylan,5.0,0.0,0.0
Georgie,1.0,0.0,0.0
Gill,0.0,0.0,0.0
Illiyin,0.0,0.0,0.0
John,-0.5,3.5,0.5
Mike,0.0,0.0,0.0
Nelly,1.0,0.0,2.0
Sumayah,0.5,0.5,1.5