Team Name, Star Baker, Leaver of Tents, Technical Winner, Total Score
"Pie, Claudius ",Sumayah (0.0),Mike (4.0),Gill (0.0),4.0
"Steven Hamburger, Ph.D.",Nelly (0.5),Andy (0.0),Christiaan (1.0),1.5
"Panos Breados",Sumayah (0.0),Gill (0.0),Christiaan (1.0),1.0
"Drop the Biscuit",Nelly (0.5),Illiyin (0.5),Sumayah (0.0),1.0
"Tiers of Joy",Nelly (0.5),Andy (0.0),Sumayah (0.0),0.5
"First Person Baker Mode",Sumayah (0.0),Andy (0.0),Nelly (0.5),0.5
"Muffin Top",Sumayah (0.0),Andy (0.0),Gill (0.0),0.0
"On a buttered roll",Mike (0.0),Andy (0.0),Gill (0.0),0.0