Team Name, Star Baker, Leaver of Tents, Technical Winner, Total Score
"On a buttered roll",Gill (0.0),Christiaan (0.0),Nelly (2.0),2.0
"Tiers of Joy",Mike (0.0),Illiyin (0.0),Nelly (2.0),2.0
"Steven Hamburger, Ph.D.",Illiyin (0.0),Gill (0.0),Nelly (2.0),2.0
"Drop the Biscuit",Nelly (1.0),Georgie (0.0),Mike (0.0),1.0
"First Person Baker Mode",Sumayah (0.5),Georgie (0.0),John (0.5),1.0
"Muffin Top",Sumayah (0.5),Georgie (0.0),Christiaan (0.0),0.5
"Pie, Claudius ",Mike (0.0),Georgie (0.0),John (0.5),0.5
"Panos Breados",John (-0.5),Christiaan (0.0),Illiyin (0.0),-0.5